[
  {
    "name" : "Огонь",
    "compound" : false,
    "state" : -1
  },
  {
    "name" : "Задымление",
    "compound" : false,
    "state" : -1
  },
  {
    "name" : "Человек без каски",
    "compound" : false,
    "state" : -1
  },
  {
    "name" : "Человек без средств защиты",
    "compound" : false,
    "state" : -1
  },
  {
    "name" : "Лежащий человек",
    "compound" : false,
    "state" : -1
  },
  {
    "name" : "Вода",
    "compound" : false,
    "state" : -1
  },
  {
    "name" : "Вибрация",
    "compound" : false,
    "state" : -1
  },
  {
    "name" : "Человек",
    "compound" : false,
    "state" : -1
  }
]